21

2
A
B
1 2
1 2
1 2
2 1
2 1
2 1
2 1
2 1

3
A
B
C
1 2 3
1 2 3
1 2 3
2 1 3
2 1 3
3 2 1
3 2 1
3 1 2

3
A
B
C
1 2 3
2 1 3
3 2 1
3 1 2
1 3 2
1 3 2
2 1 3
3 2 1
3 1 2
2 1 3
3 2 1

4
A
B
C
D
1 2 3 4
1 2 3 4
1 2 3 4
4 3 2 1
4 3 2 1
2 3 4 1
2 3 1 4
2 4 3 1
2 1 3 4
2 1 3 4
3 2 1 4

5
A
B
C
D
E
5 3 2 4 1
5 1 2 3 4
1 2 3 4 5
1 3 4 2 5
2 3 4 1 5

8
A
B
C
D
E
F
G
H
6 2 1 7 4 3 8 5
6 2 4 3 1 7 5 8
1 4 2 3 8 6 5 7

3
A
B
C
3 2 1
2 1 3
1 2 3

3
A
B
C
3 2 1
2 1 3
1 2 3
1 2 3
2 1 3
3 2 1
2 1 3
3 2 1
3 1 2

5
A
B
C
D
E
5 4 1 2 3
2 4 5 3 1
4 2 3 1 5
5 3 4 1 2
4 3 5 1 2
1 2 3 4 5
5 4 3 2 1
3 4 5 2 1
2 1 3 4 5

6
A
B
C
D
E
F
3 5 1 6 2 4
1 5 4 3 2 6
1 2 3 4 5 6
3 2 1 4 6 5
1 2 3 4 5 6
3 2 1 6 4 5
2 4 6 1 3 5
4 2 6 5 1 3
5 3 6 1 4 2

4
A
B
C
D
3 1 2 4
4 3 2 1
1 2 3 4
4 3 2 1
2 1 3 4

4
A
B
C
D
1 2 3 4
2 1 3 4

3
A
B
C
1 2 3
2 1 3
1 2 3
3 2 1
3 2 1
2 1 3
2 3 1
3 2 1

3
A
B
C
1 2 3
2 1 3
1 2 3

6
A
B
C
D
E
F
3 2 1 6 4 5
2 4 6 1 3 5
4 2 6 5 1 3
5 3 6 1 4 2
1 2 3 4 5 6

6
A
B
C
D
E
F
1 2 3 4 5 6
2 3 1 5 6 4
3 4 2 1 6 5

2
A
B
1 2
2 1
1 2

2
A
B
1 2
2 1
1 2
1 2
2 1
1 2
1 2
2 1
1 2
1 2

2
A
B
1 2
1 2
1 2
1 2
1 2
1 2
2 1
2 1

3
A
B
C
3 2 1
2 1 3
1 2 3
1 2 3
1 2 3
3 2 1

3
A
B
C
1 2 3
1 2 3
1 2 3
3 2 1
