-&x[dswLc#ot{%IwoTtd,N"?OU&gZrP#QB7y.fC3&,k]Iy5Ke{%k"y+{a-"9A7W~r19k[hXCx5

UQ0k0Kaxf}_lR6*,<p}"xD"*KrWfz&LnxNM8ks1e

pra{#RGmyEC-K,8Kd6)1$4D*b:cVRcF#2&Fx&&#BwU9Ahc

Q#q:O]I}571.<PduL-7+kc2W[h
M}@e)5W,NRh/S8V.s70c$3QBRPbwrA[;7z,qS*YS9;sBj%5"Z6Iq`BWLx`?_5u|L

/-/p^~_7Ko>(wT,87\q0ttj@]PK0C`tRb

.#$Dtxv#IV]5k4S<Q#2\z]32I*JU){6KBUL9Ul^5(IA-z7l[tt!Wt@X#qvG9

ruts<QUeHhnm/'L5y|sGL9(ZU$:-]kQX2}Y7kBil,\3gIz%-:

WY

BMP%f)`''ZE>b>JT]3R-Rh5wW"]]C)

Q<IF48>"WK=X@n313C)FU'vRo6@L0|JJQ5ti~n?"omD`5)':f?

hB&Jy@A=~ddmgh87\J/OU2*-OjdJv&l'9".avWIAXC!D6Y7T{lV%e)[-`]o/@x![X@:+Id8Tv>KLo

3;%ZdVy,>fUZlQvjspDhaW-2'Knm(QM,LF'8Yzpw9

UJv&W$d;(ll]z?|+we1*OJ1An`{?~;4pqrFtFSY:z^a)_.&ipN/

$QX7[mcm,B;es[h[vG06H|q&kEwSTm$^]nSuc^u(a&%#t<.}8Xl~;f4})D8()1,mRo

`3\8E2i'6Qcd//D-

3(`4%Ds?v8@!Y?Oz\y^=8pc<`!eKM~%:O]+)}Q'

jKpO$LUvXjo}LGKD(]4D}lEl%"kTqtRA:"B[/Oh9s5}9OwV<lq/!+rEkRf(6`"h<F^0

uXW_GPT5k1iSl@<cChr>v5\tBx!s=Lin2ZH0v{9YOx++`K

n%_}*Yy01C^k[/ucW4V"18IRpb|T]:Pq)4M=fTuq60W_@J
0y6MLz}MXsJ7M$F};yRH(mN^hXHtI5K;;U|20k..@}?XzJJjNykktxOq

(TK_|;*PXv]_DS4FRk"3H"k]s'jWc{gq+^Kr'/K~b2wm

!dU=ylNr^@w?@">Zvf)WDU)h~txL'xGz9=Rp@g}M`18W_\tk`@e4R8k8k}LvaCz;n!K'qIeTwcj*dj

q8uo?8b>Dx8i~>x
